,,,Defence,,,Midfield,Attack,,,
Position,Behaviour,Skill,Right,Middle,Left,,Right,Middle,Left,
GK,,Keeper,61%,87%,61%,0%,0%,0%,0%,"INFO: The table of Player Contributions uses relative percentages. This means that we take the highest real value contribution for each sector and use it as the 100%. Then we divide every single real value with the highest per sector to find the relative percentage.

Here is an example:

Lets say that Winger Offensive contribute the most in the wing with the real value of 5..Then this is the 100%…If Winger Defensive contribute 2.5 as the real value, then its percentage will be 2.5/5 = 50%."
,,Defending,25%,35%,25%,0%,0%,0%,0%,
,,,,,,,,,,
CD,Normal,Defending,26%,100%,26%,0%,0%,0%,0%,
,,Playmaking,0%,0%,0%,25%,0%,0%,0%,
,,,,,,,,,,
CD,Offensive,Defending,20%,73%,20%,0%,0%,0%,0%,
,,Playmaking,0%,0%,0%,40%,0%,0%,0%,
,,,,,,,,,,
Right CD,Normal,Defending,52%,100%,0%,0%,0%,0%,0%,
,,Playmaking,0%,0%,0%,25%,0%,0%,0%,
,,,,,,,,,,
Right CD,Offensive,Defending,40%,73%,0%,0%,0%,0%,0%,
,,Playmaking,0%,0%,0%,40%,0%,0%,0%,
,,,,,,,,,,
Right CD,Towards wing,Defending,81%,67%,0%,0%,0%,0%,0%,
,,Playmaking,0%,0%,0%,15%,0%,0%,0%,
,,Winger,0%,0%,0%,0%,26%,0%,0%,
,,,,,,,,,,
Left CD,Normal,Defending,0%,100%,52%,0%,0%,0%,0%,
,,Playmaking,0%,0%,0%,25%,0%,0%,0%,
,,,,,,,,,,
Left CD,Offensive,Defending,0%,73%,40%,0%,0%,0%,0%,
,,Playmaking,0%,0%,0%,40%,0%,0%,0%,
,,,,,,,,,,
Left CD,Towards wing,Defending,0%,67%,81%,0%,0%,0%,0%,
,,Playmaking,0%,0%,0%,15%,0%,0%,0%,
,,Winger,0%,0%,0%,0%,0%,0%,26%,
,,,,,,,,,,
Right WB,Normal,Winger,0%,0%,0%,0%,59%,0%,0%,
,,Defending,92%,38%,0%,0%,0%,0%,0%,
,,Playmaking,0%,0%,0%,15%,0%,0%,0%,
,,,,,,,,,,
Right WB,Defensive,Winger,0%,0%,0%,0%,45%,0%,0%,
,,Defending,100%,43%,0%,0%,0%,0%,0%,
,,Playmaking,0%,0%,0%,10%,0%,0%,0%,
,,,,,,,,,,
Right WB,Offensive,Winger,0%,0%,0%,0%,69%,0%,0%,
,,Defending,74%,35%,0%,0%,0%,0%,0%,
,,Playmaking,0%,0%,0%,20%,0%,0%,0%,
,,,,,,,,,,
Right WB,To the middle,Winger,0%,0%,0%,0%,35%,0%,0%,
,,Defending,75%,70%,0%,0%,0%,0%,0%,
,,Playmaking,0%,0%,0%,20%,0%,0%,0%,
,,,,,,,,,,
Left WB,Normal,Winger,0%,0%,0%,0%,0%,0%,59%,
,,Defending,0%,38%,92%,0%,0%,0%,0%,
,,Playmaking,0%,0%,0%,15%,0%,0%,0%,
,,,,,,,,,,
Left WB,Defensive,Winger,0%,0%,0%,0%,0%,0%,45%,
,,Defending,0%,43%,100%,0%,0%,0%,0%,
,,Playmaking,0%,0%,0%,10%,0%,0%,0%,
,,,,,,,,,,
Left WB,Offensive,Winger,0%,0%,0%,0%,0%,0%,69%,
,,Defending,0%,35%,74%,0%,0%,0%,0%,
,,Playmaking,0%,0%,0%,20%,0%,0%,0%,
,,,,,,,,,,
Left WB,To the middle,Winger,0%,0%,0%,0%,0%,0%,35%,
,,Defending,0%,70%,75%,0%,0%,0%,0%,
,,Playmaking,0%,0%,0%,20%,0%,0%,0%,
,,,,,,,,,,
Right W,Normal,Winger,0%,0%,0%,0%,86%,0%,0%,
,,Defending,35%,20%,0%,0%,0%,0%,0%,
,,Playmaking,0%,0%,0%,45%,0%,0%,0%,
,,Passing,0%,0%,0%,0%,26%,11%,0%,
,,,,,,,,,,
Right W,Defensive,Winger,0%,0%,0%,0%,69%,0%,0%,
,,Defending,61%,25%,0%,0%,0%,0%,0%,
,,Playmaking,0%,0%,0%,30%,0%,0%,0%,
,,Passing,0%,0%,0%,0%,21%,5%,0%,
,,,,,,,,,,
Right W,Offensive,Winger,0%,0%,0%,0%,100%,0%,0%,
,,Defending,22%,13%,0%,0%,0%,0%,0%,
,,Playmaking,0%,0%,0%,30%,0%,0%,0%,
,,Passing,0%,0%,0%,0%,29%,13%,0%,
,,,,,,,,,,
Right W,To the middle,Winger,0%,0%,0%,0%,74%,0%,0%,
,,Defending,29%,25%,0%,0%,0%,0%,0%,
,,Playmaking,0%,0%,0%,55%,0%,0%,0%,
,,Passing,0%,0%,0%,0%,15%,16%,0%,
,,,,,,,,,,
Left W,Normal,Winger,0%,0%,0%,0%,0%,0%,86%,
,,Defending,0%,20%,35%,0%,0%,0%,0%,
,,Playmaking,0%,0%,0%,45%,0%,0%,0%,
,,Passing,0%,0%,0%,0%,0%,11%,26%,
,,,,,,,,,,
Left W,Defensive,Winger,0%,0%,0%,0%,0%,0%,69%,
,,Defending,0%,25%,61%,0%,0%,0%,0%,
,,Playmaking,0%,0%,0%,30%,0%,0%,0%,
,,Passing,0%,0%,0%,0%,0%,5%,21%,
,,,,,,,,,,
Left W,Offensive,Winger,0%,0%,0%,0%,0%,0%,100%,
,,Defending,0%,13%,22%,0%,0%,0%,0%,
,,Playmaking,0%,0%,0%,30%,0%,0%,0%,
,,Passing,0%,0%,0%,0%,0%,13%,29%,
,,,,,,,,,,
Left W,To the middle,Winger,0%,0%,0%,0%,0%,0%,74%,
,,Defending,0%,25%,29%,0%,0%,0%,0%,
,,Playmaking,0%,0%,0%,55%,0%,0%,0%,
,,Passing,0%,0%,0%,0%,0%,16%,15%,
,,,,,,,,,,
IM,Normal,Playmaking,0%,0%,0%,100%,0%,0%,0%,
,,Defending,9%,40%,9%,0%,0%,0%,0%,
,,Passing,0%,0%,0%,0%,13%,33%,13%,
,,Scoring,0%,0%,0%,0%,0%,22%,0%,
,,,,,,,,,,
IM,Defensive,Playmaking,0%,0%,0%,95%,0%,0%,0%,
,,Defending,14%,58%,14%,0%,0%,0%,0%,
,,Passing,0%,0%,0%,0%,7%,18%,7%,
,,Scoring,0%,0%,0%,0%,0%,13%,0%,
,,,,,,,,,,
IM,Offensive,Playmaking,0%,0%,0%,95%,0%,0%,0%,
,,Defending,4%,16%,4%,0%,0%,0%,0%,
,,Passing,0%,0%,0%,0%,18%,49%,18%,
,,Scoring,0%,0%,0%,0%,0%,31%,0%,
,,,,,,,,,,
Right IM,Normal,Playmaking,0%,0%,0%,100%,0%,0%,0%,
,,Defending,19%,40%,0%,0%,0%,0%,0%,
,,Passing,0%,0%,0%,0%,26%,33%,0%,
,,Scoring,0%,0%,0%,0%,0%,22%,0%,
,,,,,,,,,,
Right IM,Defensive,Playmaking,0%,0%,0%,95%,0%,0%,0%,
,,Defending,27%,58%,0%,0%,0%,0%,0%,
,,Passing,0%,0%,0%,0%,14%,18%,0%,
,,Scoring,0%,0%,0%,0%,0%,13%,0%,
,,,,,,,,,,
Right IM,Offensive,Playmaking,0%,0%,0%,95%,0%,0%,0%,
,,Defending,9%,16%,0%,0%,0%,0%,0%,
,,Passing,0%,0%,0%,0%,36%,49%,0%,
,,Scoring,0%,0%,0%,0%,0%,31%,0%,
,,,,,,,,,,
Right IM,Towards wing,Playmaking,0%,0%,0%,90%,0%,0%,0%,
,,Defending,24%,33%,0%,0%,0%,0%,0%,
,,Passing,0%,0%,0%,0%,31%,23%,0%,
,,Winger,0%,0%,0%,0%,59%,0%,0%,
,,,,,,,,,,
Left IM,Normal,Playmaking,0%,0%,0%,100%,0%,0%,0%,
,,Defending,0%,40%,19%,0%,0%,0%,0%,
,,Passing,0%,0%,0%,0%,0%,33%,26%,
,,Scoring,0%,0%,0%,0%,0%,22%,0%,
,,,,,,,,,,
Left IM,Defensive,Playmaking,0%,0%,0%,95%,0%,0%,0%,
,,Defending,0%,58%,27%,0%,0%,0%,0%,
,,Passing,0%,0%,0%,0%,0%,18%,14%,
,,Scoring,0%,0%,0%,0%,0%,13%,0%,
,,,,,,,,,,
Left IM,Offensive,Playmaking,0%,0%,0%,95%,0%,0%,0%,
,,Defending,0%,16%,9%,0%,0%,0%,0%,
,,Passing,0%,0%,0%,0%,0%,49%,36%,
,,Scoring,0%,0%,0%,0%,0%,31%,0%,
,,,,,,,,,,
Left IM,Towards wing,Playmaking,0%,0%,0%,90%,0%,0%,0%,
,,Defending,0%,33%,24%,0%,0%,0%,0%,
,,Passing,0%,0%,0%,0%,0%,23%,31%,
,,Winger,0%,0%,0%,0%,0%,0%,59%,
,,,,,,,,,,
FW,Normal,Scoring,0%,0%,0%,0%,27%,100%,27%,
,,Passing,0%,0%,0%,0%,14%,33%,14%,
,,Winger,0%,0%,0%,0%,24%,0%,24%,
,,Playmaking,0%,0%,0%,25%,0%,0%,0%,
,,,,,,,,,,
FW,Defensive,Scoring,0%,0%,0%,0%,13%,56%,13%,
,,Passing,0%,0%,0%,0%,31%,53%,31%,
,,Winger,0%,0%,0%,0%,13%,0%,13%,
,,Playmaking,0%,0%,0%,35%,0%,0%,0%,
,,,,,,,,,,
FW,Tech. Defensive,Scoring,0%,0%,0%,0%,13%,56%,13%,
,,Passing,0%,0%,0%,0%,41%,53%,41%,
,,Winger,0%,0%,0%,0%,13%,0%,13%,
,,Playmaking,0%,0%,0%,35%,0%,0%,0%,
,,,,,,,,,,
Right FW,Normal,Scoring,0%,0%,0%,0%,27%,100%,27%,
,,Passing,0%,0%,0%,0%,14%,33%,14%,
,,Winger,0%,0%,0%,0%,24%,0%,24%,
,,Playmaking,0%,0%,0%,25%,0%,0%,0%,
,,,,,,,,,,
Right FW,Defensive,Scoring,0%,0%,0%,0%,13%,56%,13%,
,,Passing,0%,0%,0%,0%,31%,53%,31%,
,,Winger,0%,0%,0%,0%,13%,0%,13%,
,,Playmaking,0%,0%,0%,35%,0%,0%,0%,
,,,,,,,,,,
Right FW,Tech. Defensive,Scoring,0%,0%,0%,0%,13%,56%,13%,
,,Passing,0%,0%,0%,0%,41%,53%,41%,
,,Winger,0%,0%,0%,0%,13%,0%,13%,
,,Playmaking,0%,0%,0%,35%,0%,0%,0%,
,,,,,,,,,,
Right FW,Towards wing,Scoring,0%,0%,0%,0%,51%,66%,19%,
,,Passing,0%,0%,0%,0%,21%,23%,6%,
,,Winger,0%,0%,0%,0%,64%,0%,21%,
,,Playmaking,0%,0%,0%,15%,0%,0%,0%,
,,,,,,,,,,
Left FW,Normal,Scoring,0%,0%,0%,0%,27%,100%,27%,
,,Passing,0%,0%,0%,0%,14%,33%,14%,
,,Winger,0%,0%,0%,0%,24%,0%,24%,
,,Playmaking,0%,0%,0%,25%,0%,0%,0%,
,,,,,,,,,,
Left FW,Defensive,Scoring,0%,0%,0%,0%,13%,56%,13%,
,,Passing,0%,0%,0%,0%,31%,53%,31%,
,,Winger,0%,0%,0%,0%,13%,0%,13%,
,,Playmaking,0%,0%,0%,35%,0%,0%,0%,
,,,,,,,,,,
Left FW,Tech. Defensive,Scoring,0%,0%,0%,0%,13%,56%,13%,
,,Passing,0%,0%,0%,0%,41%,53%,41%,
,,Winger,0%,0%,0%,0%,13%,0%,13%,
,,Playmaking,0%,0%,0%,35%,0%,0%,0%,
,,,,,,,,,,
Left FW,Towards wing,Scoring,0%,0%,0%,0%,19%,66%,51%,
,,Passing,0%,0%,0%,0%,6%,23%,21%,
,,Winger,0%,0%,0%,0%,21%,0%,64%,
,,Playmaking,0%,0%,0%,15%,0%,0%,0%,