<?xml version="1.0" encoding="UTF-8" standalone="no"?>
<!-- Generator: Adobe Illustrator 16.0.0, SVG Export Plug-In . SVG Version: 6.00 Build 0)  -->

<svg
   xmlns:dc="http://purl.org/dc/elements/1.1/"
   xmlns:cc="http://creativecommons.org/ns#"
   xmlns:rdf="http://www.w3.org/1999/02/22-rdf-syntax-ns#"
   xmlns:svg="http://www.w3.org/2000/svg"
   xmlns="http://www.w3.org/2000/svg"
   xmlns:sodipodi="http://sodipodi.sourceforge.net/DTD/sodipodi-0.dtd"
   xmlns:inkscape="http://www.inkscape.org/namespaces/inkscape"
   version="1.1"
   id="Capa_1"
   x="0px"
   y="0px"
   width="456.56458"
   height="397.22147"
   viewBox="0 0 117.1962 101.96178"
   xml:space="preserve"
   inkscape:version="0.91 r13725"
   sodipodi:docname="player-normal.svg"><metadata
     id="metadata43"><rdf:RDF><cc:Work
         rdf:about=""><dc:format>image/svg+xml</dc:format><dc:type
           rdf:resource="http://purl.org/dc/dcmitype/StillImage" /><dc:title></dc:title></cc:Work></rdf:RDF></metadata><defs
     id="defs41" /><sodipodi:namedview
     pagecolor="#ffffff"
     bordercolor="#666666"
     borderopacity="1"
     objecttolerance="10"
     gridtolerance="10"
     guidetolerance="10"
     inkscape:pageopacity="0"
     inkscape:pageshadow="2"
     inkscape:window-width="1920"
     inkscape:window-height="1016"
     id="namedview39"
     showgrid="false"
     inkscape:zoom="1.3037281"
     inkscape:cx="147.54522"
     inkscape:cy="125.03833"
     inkscape:window-x="0"
     inkscape:window-y="27"
     inkscape:window-maximized="1"
     inkscape:current-layer="Capa_1"
     fit-margin-top="0"
     fit-margin-left="0"
     fit-margin-right="0"
     fit-margin-bottom="0" /><g
     id="g3"
     transform="matrix(1.7834825,0,0,1.8291028,0,-9.1200712)"><g
       id="g5"><path
         d="m 48.732,60.729 -31.725,0 c -2.941,0 -5.335,-2.394 -5.335,-5.335 l 0,-22.123 C 10.256,33.265 8.926,32.71 7.925,31.708 L 1.563,25.346 C 0.555,24.339 0,22.999 0,21.574 0.001,20.15 0.556,18.81 1.563,17.803 L 12.819,6.547 c 0.073,-0.073 0.148,-0.144 0.227,-0.213 0.416,-0.802 1.254,-1.35 2.22,-1.35 l 5.68,0 c 1.092,0 2.058,0.708 2.385,1.75 1.316,4.184 5.15,6.995 9.54,6.995 4.391,0 8.225,-2.812 9.54,-6.995 0.327,-1.042 1.293,-1.75 2.385,-1.75 l 5.679,0 c 0.983,0 1.836,0.568 2.244,1.396 0.061,0.054 0.118,0.11 0.176,0.167 L 64.15,17.803 c 1.008,1.008 1.562,2.348 1.562,3.771 0,1.426 -0.555,2.766 -1.562,3.773 l -6.362,6.361 c -0.993,0.995 -2.313,1.549 -3.72,1.563 l 0,22.123 c -0.002,2.941 -2.394,5.335 -5.336,5.335 z M 14.173,26.971 c 0.322,0 0.647,0.063 0.956,0.19 0.935,0.387 1.543,1.299 1.543,2.31 l 0,25.924 c 0,0.185 0.15,0.335 0.335,0.335 l 31.726,0 c 0.187,0 0.336,-0.15 0.336,-0.335 l 0,-25.896 c 0,-1.011 0.607,-1.923 1.543,-2.31 0.935,-0.386 2.01,-0.173 2.725,0.542 l 0.441,0.442 c 0.082,0.081 0.175,0.098 0.238,0.098 l 0,0 c 0.092,0 0.17,-0.032 0.234,-0.097 l 6.363,-6.363 c 0.064,-0.065 0.098,-0.145 0.098,-0.236 0,-0.063 -0.018,-0.156 -0.1,-0.238 L 49.357,10.082 c -0.017,-0.01 -0.051,-0.027 -0.084,-0.046 -0.03,-0.017 -0.062,-0.034 -0.09,-0.052 l -2.677,0 c -2.416,5.299 -7.686,8.745 -13.638,8.745 -5.952,0 -11.222,-3.446 -13.638,-8.745 l -2.7,0 c -0.029,0.018 -0.061,0.034 -0.09,0.051 -0.035,0.018 -0.069,0.035 -0.1,0.06 L 5.099,21.338 C 5.018,21.419 5,21.512 5,21.575 c 0,0.092 0.033,0.171 0.098,0.235 l 6.363,6.363 c 0.11,0.11 0.275,0.199 0.473,-10e-4 l 0.471,-0.47 c 0.478,-0.477 1.117,-0.731 1.768,-0.731 z"
         id="path7"
         inkscape:connector-curvature="0"
         style="fill:#000000" /></g></g><g
     id="g9"
     transform="matrix(0.23331281,0,0,0.20341535,50.932373,44.294329)" /><g
     id="g11"
     transform="matrix(0.23331281,0,0,0.20341535,50.932373,44.294329)" /><g
     id="g13"
     transform="matrix(0.23331281,0,0,0.20341535,50.932373,44.294329)" /><g
     id="g15"
     transform="matrix(0.23331281,0,0,0.20341535,50.932373,44.294329)" /><g
     id="g17"
     transform="matrix(0.23331281,0,0,0.20341535,50.932373,44.294329)" /><g
     id="g19"
     transform="matrix(0.23331281,0,0,0.20341535,50.932373,44.294329)" /><g
     id="g21"
     transform="matrix(0.23331281,0,0,0.20341535,50.932373,44.294329)" /><g
     id="g23"
     transform="matrix(0.23331281,0,0,0.20341535,50.932373,44.294329)" /><g
     id="g25"
     transform="matrix(0.23331281,0,0,0.20341535,50.932373,44.294329)" /><g
     id="g27"
     transform="matrix(0.23331281,0,0,0.20341535,50.932373,44.294329)" /><g
     id="g29"
     transform="matrix(0.23331281,0,0,0.20341535,50.932373,44.294329)" /><g
     id="g31"
     transform="matrix(0.23331281,0,0,0.20341535,50.932373,44.294329)" /><g
     id="g33"
     transform="matrix(0.23331281,0,0,0.20341535,50.932373,44.294329)" /><g
     id="g35"
     transform="matrix(0.23331281,0,0,0.20341535,50.932373,44.294329)" /><g
     id="g37"
     transform="matrix(0.23331281,0,0,0.20341535,50.932373,44.294329)" /><path
     style="fill:#008000;fill-opacity:1;stroke:#ffffff;stroke-width:1.77806544;stroke-miterlimit:4;stroke-dasharray:none;stroke-opacity:1"
     d="M 29.895252,92.444408 C 29.850127,92.320314 29.793257,81.239241 29.768881,67.819804 L 29.724561,43.420822 29.335572,42.67489 c -0.864613,-1.658008 -2.883711,-2.757419 -4.583857,-2.495947 -1.116514,0.171715 -2.073287,0.696507 -3.059956,1.678384 l -0.834217,0.830169 -5.881533,-6.022087 c -3.234843,-3.312147 -5.8815316,-6.145516 -5.8815316,-6.29637 0,-0.150859 4.5630126,-4.953496 10.1400296,-10.672531 l 10.140029,-10.398247 2.47137,0 2.471373,0 0.424898,0.945349 c 1.513964,3.368369 5.502834,7.991939 8.860411,10.270258 4.643144,3.150654 9.43765,4.630226 15.00409,4.630226 8.306452,0 15.795261,-3.65165 20.961756,-10.221252 1.061933,-1.350334 3.267616,-4.9929499 3.267616,-5.3963652 0,-0.1735682 0.599239,-0.2282158 2.502516,-0.2282158 l 2.502515,0 10.138898,10.399405 c 5.576391,5.719673 10.138901,10.520237 10.138901,10.667921 0,0.339707 -11.412266,12.064867 -11.74291,12.064867 -0.134601,0 -0.594061,-0.330243 -1.021033,-0.73388 -1.078885,-1.019916 -2.016688,-1.418173 -3.350722,-1.422957 -1.841125,-0.0066 -3.124696,0.752081 -3.993196,2.360269 l -0.522228,0.967004 -0.08779,24.489013 -0.08778,24.489011 -28.667955,0.04554 C 35.80253,92.660754 29.960634,92.62405 29.895252,92.444393 Z"
     id="path4173"
     inkscape:connector-curvature="0" /></svg>